\relax 
\citation{7033307}
\citation{6844253}
\citation{Bayer:1977:PBT:320521.320530}
\citation{dads:bt}
\citation{Comer:1979:UB:356770.356776}
\citation{1181891}
\citation{1311210}
\citation{Gray:1992:TPC:573304}
\citation{dads:ti}
\citation{CrochemoreMaxime2009T}
\@writefile{toc}{\contentsline {section}{\numberline {I}Introduction and background}{1}}
\@writefile{toc}{\contentsline {subsection}{\numberline {\unhbox \voidb@x \hbox {I-A}}Definitions}{1}}
\@writefile{toc}{\contentsline {subsubsection}{\numberline {\unhbox \voidb@x \hbox {I-A}1}B-tree}{1}}
\@writefile{lof}{\contentsline {figure}{\numberline {1}{\ignorespaces }}{1}}
\newlabel{Tree data structure digram}{{1}{1}}
\@writefile{toc}{\contentsline {subsubsection}{\numberline {\unhbox \voidb@x \hbox {I-A}2}Trie}{1}}
\citation{Al-Suwaiyel:1984:ATC:329.295}
\citation{MorrisonDonald1968PATR}
\citation{6844253}
\citation{Qin:2013:TSS:2457317.2457389}
\citation{Litwin:1981:TH:582318.582322}
\citation{Graefe:2006:BII:1140402.1140409}
\newlabel{Trie data structure digram}{{\unhbox \voidb@x \hbox {I-A}2}{2}}
\@writefile{lof}{\contentsline {figure}{\numberline {2}{\ignorespaces }}{2}}
\newlabel{Architecture of a research function}{{\unhbox \voidb@x \hbox {I-A}2}{2}}
\@writefile{toc}{\contentsline {subsubsection}{\numberline {\unhbox \voidb@x \hbox {I-A}3}Conclusion}{2}}
\bibstyle{IEEEtran}
\bibdata{ShortPaper}
\bibcite{7033307}{1}
\bibcite{6844253}{2}
\bibcite{Bayer:1977:PBT:320521.320530}{3}
\bibcite{dads:bt}{4}
\bibcite{Comer:1979:UB:356770.356776}{5}
\bibcite{1181891}{6}
\bibcite{1311210}{7}
\bibcite{Gray:1992:TPC:573304}{8}
\bibcite{dads:ti}{9}
\@writefile{toc}{\contentsline {section}{\numberline {II}Development approach}{3}}
\@writefile{toc}{\contentsline {section}{\numberline {III}Results}{3}}
\@writefile{toc}{\contentsline {section}{\numberline {IV}Discussion and conclusion}{3}}
\@writefile{toc}{\contentsline {section}{References}{3}}
\bibcite{CrochemoreMaxime2009T}{10}
\bibcite{Al-Suwaiyel:1984:ATC:329.295}{11}
\bibcite{MorrisonDonald1968PATR}{12}
\bibcite{Qin:2013:TSS:2457317.2457389}{13}
\bibcite{Litwin:1981:TH:582318.582322}{14}
\bibcite{Graefe:2006:BII:1140402.1140409}{15}
