\relax 
\providecommand*\new@tpo@label[2]{}
\@writefile{toc}{\contentsline {section}{\numberline {1}Introduction}{3}}
\citation{SpinellisDiomidis2012G}
\citation{HuYan2016IaoG}
\citation{BouquinDaina2015G}
\citation{JeffreyPerkel2016Ddso}
\citation{LongoJustin2016Guip}
\@writefile{toc}{\contentsline {section}{\numberline {2}Literature review}{4}}
\@writefile{toc}{\contentsline {subsection}{\numberline {2.1}Git and Git servers}{4}}
\@writefile{toc}{\contentsline {subsection}{\numberline {2.2}Search algorithm within different data structure}{4}}
\citation{BerryMichaelW2005Use:}
\citation{dads:t}
\citation{KeoghJamesEdward2004Dsd}
\@writefile{toc}{\contentsline {subsubsection}{\numberline {2.2.1}Tree}{5}}
\newlabel{Tree data structure digram}{{2.2.1}{5}}
\citation{KeoghJamesEdward2004Dsd}
\citation{Bayer:1977:PBT:320521.320530}
\citation{dads:bt}
\citation{Comer:1979:UB:356770.356776}
\citation{Comer:1979:UB:356770.356776}
\citation{7033307}
\citation{1181891}
\citation{1311210}
\citation{Gray:1992:TPC:573304}
\citation{dads:ti}
\citation{ConnellyRichardH1995Agot}
\@writefile{toc}{\contentsline {subsubsection}{\numberline {2.2.2}B-Tree}{6}}
\citation{Fredkin:1960:TM:367390.367400}
\citation{CrochemoreMaxime2009T}
\citation{CrochemoreMaxime2009T}
\citation{Al-Suwaiyel:1984:ATC:329.295}
\@writefile{toc}{\contentsline {subsubsection}{\numberline {2.2.3}Trie}{7}}
\newlabel{Trie data structure digram}{{2.2.3}{7}}
\citation{MorrisonDonald1968PATR}
\citation{6844253}
\citation{Qin:2013:TSS:2457317.2457389}
\citation{Litwin:1981:TH:582318.582322}
\citation{Graefe:2006:BII:1140402.1140409}
\@writefile{toc}{\contentsline {subsection}{\numberline {2.3}Conclusion}{8}}
\citation{AmaralMarcelo2015PEoM}
\citation{DragoniNicola2017MMoa}
\citation{stackoverflow}
\citation{scala}
\citation{webframework}
\citation{Yesod}
\citation{scotty}
\citation{Fielding:2000:ASD:932295}
\@writefile{toc}{\contentsline {section}{\numberline {3}Achievements}{10}}
\@writefile{toc}{\contentsline {subsection}{\numberline {3.1}Preliminary decision}{10}}
\@writefile{toc}{\contentsline {subsubsection}{\numberline {3.1.1}Development process}{10}}
\@writefile{toc}{\contentsline {subsubsection}{\numberline {3.1.2}Language and modules choices}{10}}
\citation{ToubianaVincent2011SMYC}
\@writefile{toc}{\contentsline {subsection}{\numberline {3.2}Development fulfilment}{11}}
\@writefile{toc}{\contentsline {subsubsection}{\numberline {3.2.1}Backend}{11}}
\@writefile{toc}{\contentsline {paragraph}{\nonumberline Rooting -}{11}}
\citation{mobile}
\@writefile{toc}{\contentsline {paragraph}{\nonumberline Cookies -}{12}}
\@writefile{toc}{\contentsline {subsubsection}{\numberline {3.2.2}Frontend}{12}}
\citation{foundation}
\newlabel{Grid example for responsive design}{{3.2.2}{13}}
\@writefile{toc}{\contentsline {subsection}{\numberline {3.3}Data management and search engine}{13}}
\@writefile{toc}{\contentsline {subsubsection}{\numberline {3.3.1}SQL}{13}}
\@writefile{toc}{\contentsline {paragraph}{\nonumberline Schema -}{13}}
\citation{Mysql}
\newlabel{Database schema}{{3.3.1}{14}}
\citation{vcachetrie}
\citation{vache}
\@writefile{toc}{\contentsline {paragraph}{\nonumberline Tools -}{15}}
\@writefile{toc}{\contentsline {subsubsection}{\numberline {3.3.2}Trie}{15}}
\@writefile{toc}{\contentsline {paragraph}{\nonumberline Tools -}{15}}
\@writefile{toc}{\contentsline {subsubsection}{\numberline {3.3.3}Speed retrieval comparison}{15}}
\citation{Mariabtree}
\newlabel{Architecture of a research function}{{3.3.3}{16}}
\citation{dockersecu}
\citation{MorrisD.2017UoDf}
\@writefile{toc}{\contentsline {subsection}{\numberline {3.4}API Scraping}{17}}
\@writefile{toc}{\contentsline {paragraph}{\nonumberline Information gathering -}{17}}
\citation{GitlabAPI}
\citation{streams}
\citation{aeson}
\@writefile{toc}{\contentsline {paragraph}{\nonumberline JSON parsing -}{18}}
\@writefile{toc}{\contentsline {section}{\numberline {4}Methodology}{19}}
\@writefile{toc}{\contentsline {subsection}{\numberline {4.1}Research}{19}}
\citation{Github}
\citation{bitbucket}
\citation{gogs}
\citation{Gitbucket}
\@writefile{toc}{\contentsline {subsection}{\numberline {4.2}Development}{20}}
\citation{SingletonAndy2016TEoM}
\newlabel{Waterfall method}{{4.2}{21}}
\citation{cabal}
\@writefile{toc}{\contentsline {subsubsection}{\numberline {4.2.1}Git workflow}{22}}
\newlabel{Git workflow of this project}{{4.2.1}{22}}
\@writefile{toc}{\contentsline {subsubsection}{\numberline {4.2.2}Cabal and software architecture}{22}}
\newlabel{Root directory architecture}{{4.2.2}{23}}
\@writefile{toc}{\contentsline {section}{\numberline {5}Risk management}{25}}
\@writefile{toc}{\contentsline {subsection}{\numberline {5.1}Risk identification}{25}}
\@writefile{toc}{\contentsline {subsection}{\numberline {5.2}Risk avoidance}{25}}
\@writefile{toc}{\contentsline {section}{\numberline {6}Dissertation conclusion}{27}}
\@writefile{toc}{\contentsline {subsection}{\numberline {6.1}Technical achievement}{27}}
\newlabel{Website weight}{{6.1}{27}}
\@writefile{toc}{\contentsline {subsection}{\numberline {6.2}Discussion}{27}}
\@writefile{toc}{\contentsline {subsection}{\numberline {6.3}Personal acquisition of knowledge and Conclusion}{28}}
\citation{DPA}
\citation{L.GordonCrovitz2008IAIS}
\@writefile{toc}{\contentsline {section}{\numberline {7}Critical appraisal}{29}}
\@writefile{toc}{\contentsline {subsection}{\numberline {7.1}Legal, social, ethical and professional issues}{29}}
\@writefile{toc}{\contentsline {subsection}{\numberline {7.2}Potential improvement}{29}}
\@writefile{toc}{\contentsline {subsection}{\numberline {7.3}Acknowledgment}{30}}
\bibstyle{IEEEtran}
\bibdata{FinalReport}
\bibcite{SpinellisDiomidis2012G}{1}
\bibcite{HuYan2016IaoG}{2}
\bibcite{BouquinDaina2015G}{3}
\bibcite{JeffreyPerkel2016Ddso}{4}
\bibcite{LongoJustin2016Guip}{5}
\bibcite{BerryMichaelW2005Use:}{6}
\bibcite{dads:t}{7}
\bibcite{KeoghJamesEdward2004Dsd}{8}
\bibcite{Bayer:1977:PBT:320521.320530}{9}
\bibcite{dads:bt}{10}
\bibcite{Comer:1979:UB:356770.356776}{11}
\bibcite{7033307}{12}
\bibcite{1181891}{13}
\bibcite{1311210}{14}
\bibcite{Gray:1992:TPC:573304}{15}
\bibcite{dads:ti}{16}
\bibcite{ConnellyRichardH1995Agot}{17}
\bibcite{Fredkin:1960:TM:367390.367400}{18}
\bibcite{CrochemoreMaxime2009T}{19}
\bibcite{Al-Suwaiyel:1984:ATC:329.295}{20}
\bibcite{MorrisonDonald1968PATR}{21}
\bibcite{6844253}{22}
\bibcite{Qin:2013:TSS:2457317.2457389}{23}
\bibcite{Litwin:1981:TH:582318.582322}{24}
\bibcite{Graefe:2006:BII:1140402.1140409}{25}
\bibcite{AmaralMarcelo2015PEoM}{26}
\bibcite{DragoniNicola2017MMoa}{27}
\bibcite{stackoverflow}{28}
\bibcite{scala}{29}
\bibcite{webframework}{30}
\bibcite{Yesod}{31}
\bibcite{scotty}{32}
\bibcite{Fielding:2000:ASD:932295}{33}
\bibcite{ToubianaVincent2011SMYC}{34}
\bibcite{mobile}{35}
\bibcite{foundation}{36}
\bibcite{Mysql}{37}
\bibcite{vcachetrie}{38}
\bibcite{vache}{39}
\bibcite{Mariabtree}{40}
\bibcite{dockersecu}{41}
\bibcite{MorrisD.2017UoDf}{42}
\bibcite{GitlabAPI}{43}
\bibcite{streams}{44}
\bibcite{aeson}{45}
\bibcite{Github}{46}
\bibcite{bitbucket}{47}
\bibcite{gogs}{48}
\bibcite{Gitbucket}{49}
\bibcite{SingletonAndy2016TEoM}{50}
\bibcite{cabal}{51}
\bibcite{DPA}{52}
\bibcite{L.GordonCrovitz2008IAIS}{53}
\global\@namedef{scr@dte@section@lastmaxnumwidth}{10.89821pt}
\global\@namedef{scr@dte@subsection@lastmaxnumwidth}{20.40558pt}
\global\@namedef{scr@dte@subsubsection@lastmaxnumwidth}{29.91295pt}
