\contentsline {section}{\numberline {1}Introduction}{3}
\contentsline {section}{\numberline {2}Choice of the subject}{3}
\contentsline {section}{\numberline {3}Objectives}{4}
\contentsline {section}{\numberline {4}Literature review}{4}
\contentsline {section}{\numberline {5}Method and resources}{5}
\contentsline {section}{\numberline {6}Project plan}{6}
\contentsline {subsection}{\numberline {6.1}Gantt chart}{8}
\contentsline {subsection}{\numberline {6.2}Pert chart}{12}
