\relax 
\providecommand*\new@tpo@label[2]{}
\citation{haxl}
\citation{scala}
\citation{acid}
\@writefile{toc}{\contentsline {section}{\numberline {1}Introduction}{3}}
\@writefile{toc}{\contentsline {section}{\numberline {2}Choice of the subject}{3}}
\citation{holumbus}
\citation{searchEngine}
\citation{depth}
\citation{cabal}
\@writefile{toc}{\contentsline {section}{\numberline {3}Objectives}{4}}
\@writefile{toc}{\contentsline {section}{\numberline {4}Literature review}{4}}
\citation{hspec}
\@writefile{toc}{\contentsline {section}{\numberline {5}Method and resources}{5}}
\@writefile{toc}{\contentsline {section}{\numberline {6}Project plan}{6}}
\@writefile{toc}{\contentsline {subsection}{\numberline {6.1}Gantt chart}{8}}
\newlabel{Gantt chart june}{{6.1}{9}}
\newlabel{Gantt chart july}{{6.1}{9}}
\newlabel{Gantt chart august}{{6.1}{11}}
\newlabel{Gantt chart september}{{6.1}{11}}
\@writefile{toc}{\contentsline {subsection}{\numberline {6.2}Pert chart}{12}}
\bibstyle{IEEEtran}
\bibdata{DissertationProposal}
\bibcite{haxl}{1}
\bibcite{scala}{2}
\bibcite{acid}{3}
\bibcite{holumbus}{4}
\bibcite{searchEngine}{5}
\bibcite{depth}{6}
\bibcite{cabal}{7}
\bibcite{hspec}{8}
\newlabel{Pert chart}{{6.2}{13}}
\global\@namedef{scr@dte@section@lastmaxnumwidth}{10.84047pt}
\global\@namedef{scr@dte@subsection@lastmaxnumwidth}{18.37163pt}
