This is BibTeX, Version 0.99d (TeX Live 2016/Arch Linux)
Capacity: max_strings=35307, hash_size=35307, hash_prime=30011
The top-level auxiliary file: Dissertation Proposal.aux
The style file: IEEEtran.bst
Reallocated singl_function (elt_size=8) to 100 items from 50.
Reallocated singl_function (elt_size=8) to 100 items from 50.
Reallocated singl_function (elt_size=8) to 100 items from 50.
Reallocated wiz_functions (elt_size=8) to 6000 items from 3000.
Reallocated singl_function (elt_size=8) to 100 items from 50.
Database file #1: DissertationProposal.bib
-- IEEEtran.bst version 1.14 (2015/08/26) by Michael Shell.
-- http://www.michaelshell.org/tex/ieeetran/bibtex/
-- See the "IEEEtran_bst_HOWTO.pdf" manual for usage information.
Warning--empty booktitle in depth

Done.
You've used 8 entries,
            4087 wiz_defined-function locations,
            857 strings with 8176 characters,
and the built_in function-call counts, 2978 in all, are:
= -- 196
> -- 33
< -- 9
+ -- 20
- -- 5
* -- 102
:= -- 491
add.period$ -- 13
call.type$ -- 8
change.case$ -- 8
chr.to.int$ -- 24
cite$ -- 9
duplicate$ -- 241
empty$ -- 308
format.name$ -- 6
if$ -- 660
int.to.chr$ -- 0
int.to.str$ -- 8
missing$ -- 54
newline$ -- 59
num.names$ -- 4
pop$ -- 190
preamble$ -- 1
purify$ -- 0
quote$ -- 2
skip$ -- 217
stack$ -- 0
substring$ -- 58
swap$ -- 132
text.length$ -- 1
text.prefix$ -- 0
top$ -- 5
type$ -- 8
warning$ -- 1
while$ -- 8
width$ -- 9
write$ -- 88
(There was 1 warning)
