\contentsline {section}{\numberline {1}Introduction and methodology}{3}
\contentsline {section}{\numberline {2}Literature review}{6}
\contentsline {subsection}{\numberline {2.1}Introduction}{6}
\contentsline {subsection}{\numberline {2.2}The trie data structure}{6}
\contentsline {subsection}{\numberline {2.3}Conclusion}{7}
\contentsline {section}{\numberline {3}Progress and achievement}{9}
