\relax 
\providecommand*\new@tpo@label[2]{}
\citation{SingletonAndy2016TEoM}
\citation{docker}
\citation{api}
\@writefile{toc}{\contentsline {section}{\numberline {1}Introduction and methodology}{3}}
\citation{http}
\citation{stream}
\citation{hedis}
\citation{sql}
\citation{acid}
\citation{criterion}
\citation{projects}
\citation{users}
\citation{scotty}
\citation{ConnellyRichardH1995Agot}
\citation{DeLaBriandais:1959:FSU:1457838.1457895}
\@writefile{toc}{\contentsline {section}{\numberline {2}Literature review}{6}}
\@writefile{toc}{\contentsline {subsection}{\numberline {2.1}Introduction}{6}}
\@writefile{toc}{\contentsline {subsection}{\numberline {2.2}The trie data structure}{6}}
\citation{KandaShunsuke2015Tcru}
\citation{Prokopec:2012:CTE:2370036.2145836}
\citation{PapadakosPanagiotis2009ODRf}
\citation{KimChulyun2015Ssji}
\newlabel{trie for the given case}{{2.2}{7}}
\@writefile{toc}{\contentsline {subsection}{\numberline {2.3}Conclusion}{7}}
\citation{Qin:2013:TSS:2457317.2457389}
\@writefile{toc}{\contentsline {section}{\numberline {3}Progress and achievement}{9}}
\bibstyle{IEEEtran}
\bibdata{Interim}
\bibcite{SingletonAndy2016TEoM}{1}
\bibcite{docker}{2}
\bibcite{api}{3}
\bibcite{http}{4}
\bibcite{stream}{5}
\bibcite{hedis}{6}
\bibcite{sql}{7}
\bibcite{acid}{8}
\bibcite{criterion}{9}
\bibcite{projects}{10}
\bibcite{users}{11}
\bibcite{scotty}{12}
\bibcite{ConnellyRichardH1995Agot}{13}
\bibcite{DeLaBriandais:1959:FSU:1457838.1457895}{14}
\bibcite{KandaShunsuke2015Tcru}{15}
\bibcite{Prokopec:2012:CTE:2370036.2145836}{16}
\bibcite{PapadakosPanagiotis2009ODRf}{17}
\bibcite{KimChulyun2015Ssji}{18}
\bibcite{Qin:2013:TSS:2457317.2457389}{19}
\global\@namedef{scr@dte@section@lastmaxnumwidth}{10.84047pt}
\global\@namedef{scr@dte@subsection@lastmaxnumwidth}{18.37163pt}
